{
  "$schema": "https://schema.management.azure.com/schemas/2019-04-01/deploymentTemplate.json#",
  "contentVersion": "1.0.0.0",
  "parameters": {
    "type": {
      "type": "string",
      "allowedValues": [
        "blob",
        "file"
      ]
    },
    "skuName": {
      "type": "string",
      "allowedValues": [
        "Premium_LRS",
        "Premium_ZRS",
        "Standard_GRS",
        "Standard_GZRS",
        "Standard_LRS",
        "Standard_RAGRS",
        "Standard_RAGZRS",
        "Standard_ZRS"
      ]
    }
  },
  "variables": {
    // name should equal something like this: sandboxprodblob or sandboxqafile, etc.
    "name": "[concat(resourceGroup().tags['client'],resourceGroup().tags['environment'],parameters('type'))]",
    // if parameters.type -eq 'file', the kind = 'FileStorage', else kind = 'BlobStorage'
    "kind": "[if(equals(parameters('type'),'file'), 'StorageV2','BlobStorage' )]",
    // set the sku tier based on the skuName
    "skuTier": "[if(contains(parameters('skuName'),'Premium'), 'Premium','Standard')]"
  },
  "resources": [
    {
      "sku": {
        "name": "[parameters('skuName')]",
        "tier": "[variables('skuTier')]"
      },
      "apiVersion": "2021-04-01",
      "kind": "[variables('kind')]",
      "name": "[variables('name')]",
      "type": "Microsoft.Storage/storageAccounts",
      "location": "[resourceGroup().location]",
      "tags": "[resourceGroup().tags]",
      "properties": {
        "networkAcls": {
          "bypass": "AzureServices",
          "virtualNetworkRules": [],
          "ipRules": [],
          "defaultAction": "Allow"
        },
        "supportsHttpsTrafficOnly": true,
        "encryption": {
          "services": {
            "file": {
              "enabled": true
            },
            "blob": {
              "enabled": true
            }
          },
          "keySource": "Microsoft.Storage"
        },
        "accessTier": "Hot"
      }
    }
  ]
}
